<svg xmlns="http://www.w3.org/2000/svg" width="150" height="150" viewBox="0 0 150 150">
  <g id="Profile" transform="translate(-121 -488)">
    <circle id="Ellipse_5" data-name="Ellipse 5" cx="75" cy="75" r="75" transform="translate(121 488)" fill="#fff"/>
    <g id="Group_18" data-name="Group 18" transform="translate(8 -7)">
      <path id="user-circle-solid" d="M75,8a75,75,0,1,0,75,75A74.987,74.987,0,0,0,75,8Zm0,29.032A26.613,26.613,0,1,1,48.387,63.645,26.613,26.613,0,0,1,75,37.032Zm0,104.032A57.952,57.952,0,0,1,30.7,120.44a33.718,33.718,0,0,1,29.788-18.085,7.4,7.4,0,0,1,2.147.333A40.04,40.04,0,0,0,75,104.774a39.889,39.889,0,0,0,12.369-2.087,7.4,7.4,0,0,1,2.147-.333A33.718,33.718,0,0,1,119.3,120.44,57.952,57.952,0,0,1,75,141.065Z" transform="translate(113 487)" fill="#343aa4"/>
      <g id="Ellipse_4" data-name="Ellipse 4" transform="translate(113 495)" fill="none" stroke="#1a1f7f" stroke-width="5">
        <circle cx="75" cy="75" r="75" stroke="none"/>
        <circle cx="75" cy="75" r="72.5" fill="none"/>
      </g>
    </g>
  </g>
</svg>
